
Log started (V12.6.3.0) Sat Jan 11 23:54:51 2020

Warning, line 57411926: Name '_ot#12#1' does not exist.
Warning, line 57411927: Name '_ot#12#2' does not exist.
Warning, line 57411928: Name '_ot#12#3' does not exist.
Warning, line 57411929: Name '_ot#12#4' does not exist.
Warning, line 57411930: Name '_ot#12#5' does not exist.
Warning, line 57411931: Name '_ot#12#6' does not exist.
Warning, line 57411932: Name '_ot#12#7' does not exist.
Warning, line 57411933: Name '_ot#12#8' does not exist.
Warning, line 57411934: Name '_ot#12#9' does not exist.
Warning, line 57411935: Name '_ot#12#10' does not exist.
Warning, line 57411936: Name '_ot#12#11' does not exist.
Warning, line 57411937: Name '_ot#12#12' does not exist.
Warning, line 57411938: Name '_ot#12#13' does not exist.
Warning, line 57411939: Name '_ot#12#14' does not exist.
Warning, line 57411940: Name '_ot#12#15' does not exist.
Warning, line 57411941: Name '_ot#12#16' does not exist.
Warning, line 57411942: Name '_ot#12#17' does not exist.
Warning, line 57411943: Name '_ot#12#18' does not exist.
Warning, line 57411944: Name '_ot#12#19' does not exist.
Warning, line 57411945: Name '_ot#12#20' does not exist.
216999 name warnings not printed.

Problem 'wt10.in.lp' read.
Read time = 324.05 sec. (13617.37 ticks)
Parallel mode: deterministic, using up to 32 threads for concurrent optimization.
Presolve has eliminated 10693822 rows and 830593 columns...
Tried aggregator 1 time.
Presolve has eliminated 54809388 rows and 5137948 columns...
LP Presolve eliminated 54809388 rows and 5137948 columns.
All rows and columns eliminated.
Presolve time = 208.02 sec. (23376.75 ticks)

Dual simplex - Optimal:  Objective =  4.6000000000e+01
Solution time =  239.80 sec.  Iterations = 0 (0)
Deterministic time = 41607.15 ticks  (173.51 ticks/sec)


Solution written to file 'wt10.in.xml'.
