{
    "set_copyw": {
	"tag": "WC",
        "comment": "if S[i,t] then y = x",
	"types": ["bool", "int", "int" ],
        "columns": [ "S[i,t]", "x1", "x2", "x3", "y1", "y2", "y3"],
        "inequalities": [
	    [  1, -1,  1,  0,  0, -1,  0,  0],
	    [  1, -1, -1,  0,  0,  1,  0,  0],
	    [  1, -1,  0,  1,  0,  0, -1,  0],
	    [  1, -1,  0, -1,  0,  0,  1,  0],
	    [  1, -1,  0,  0, -1,  0,  0,  1],
	    [  1, -1,  0,  0,  1,  0,  0, -1]
        ]
    },
    "set_incw":  {
	"tag": "WI",
        "comment": "if S[i,t] then y = x + 1",
	"types": ["bool", "int", "int" ],
        "columns": ["S[i,t]", "x2", "x1", "y2", "y1", "c2" ],
	"temp_bits": 1,
        "inequalities": [
	    [  0, -1,  0,  0,  1,  0,  0,  1,  0],
	    [  2, -1,  0,  0, -1,  0,  0, -1,  0],
	    [  1, -1,  0, -1,  1,  0,  1,  0,  0],
	    [  1, -1,  0,  1,  1,  0, -1,  0,  0],
	    [  1, -1,  0,  1, -1,  0,  1,  0,  0],
	    [  3, -1,  0, -1, -1,  0, -1,  0,  0],
	    [  2, -1,  0, -1, -1,  0,  0,  0,  1],
	    [  1, -1,  0,  0,  1,  0,  0,  0, -1],
	    [  1, -1,  0,  1,  0,  0,  0,  0, -1],
	    [  1, -1, -1,  0,  0,  1,  0,  0,  1],
	    [  1, -1,  1,  0,  0, -1,  0,  0,  1],
	    [  1, -1,  1,  0,  0,  1,  0,  0, -1],
	    [  3, -1, -1,  0,  0, -1,  0,  0, -1]
	]
    },
    "set_eqw": {
	"tag" : "WE",
        "comment": "if S[i,t] then z = (x == y)",
	"types": ["bool", "int", "int", "bool" ],
            "columns": ["S[i,t]", "x3", "x2", "x1", "y3", "y2", "y1", "z"],
        "inequalities": [
	    [  2, -1,  1,  0,  0, -1,  0,  0, -1],
	    [  2, -1,  0,  0,  1,  0,  0, -1, -1],
	    [  2, -1, -1,  0,  0,  1,  0,  0, -1],
	    [  2, -1,  0, -1,  0,  0,  1,  0, -1],
	    [  2, -1,  0,  0, -1,  0,  0,  1, -1],
	    [  6, -1, -1, -1, -1, -1, -1, -1,  1],
	    [  0, -1,  1,  1,  1,  1,  1,  1,  1],
	    [  2, -1, -1,  1,  1, -1,  1,  1,  1],
	    [  2, -1,  1, -1,  1,  1, -1,  1,  1],
	    [  4, -1, -1, -1,  1, -1, -1,  1,  1],
	    [  2, -1,  1,  1, -1,  1,  1, -1,  1],
	    [  4, -1, -1,  1, -1, -1,  1, -1,  1],
	    [  4, -1,  1, -1, -1,  1, -1, -1,  1],
	    [  2, -1,  0,  1,  0,  0, -1,  0, -1]
	]
    },
    "set_ltw": {
	"tag": "WL",
        "comment": "if S[i,t] then z = (x < y)",
	"types": ["bool", "int", "int", "temps", "bool" ],
        "columns": ["S[i,t]", "x2", "x1", "y2", "y1", "temps", "z"],
	"temp_bits": 8,
        "inequalities": [
	    [  2, -1,  0,  0, -1,  0,  0,  0,  0, -1,  0,  0,  0,  0,  0,  0,  0],
	    [  1, -1,  0,  0,  0,  0,  0,  1,  0, -1,  0,  0,  0,  0,  0,  0,  0],
	    [  1, -1,  0,  0,  1,  0,  0, -1,  0,  1,  0,  0,  0,  0,  0,  0,  0],
	    [  2, -1,  0, -1,  0,  0,  0,  0,  0,  0, -1,  0,  0,  0,  0,  0,  0],
	    [  1, -1,  0,  0,  0,  0,  1,  0,  0,  0, -1,  0,  0,  0,  0,  0,  0],
	    [  1, -1,  0,  1,  0,  0, -1,  0,  0,  0,  1,  0,  0,  0,  0,  0,  0],
	    [  2, -1,  0,  0,  0,  0,  0,  0,  0,  0,  0, -1, -1,  0,  0,  0,  0],
	    [  1, -1,  0,  0,  0,  0,  0,  0,  0,  1,  0,  0, -1,  0,  0,  0,  0],
	    [  1, -1,  0,  0,  0,  0,  0,  0,  0, -1,  0,  1,  1,  0,  0,  0,  0],
	    [  1, -1,  0, -1,  0,  0,  1,  0,  0,  0,  0,  1,  0,  0,  0,  0,  0],
	    [  1, -1,  0,  1,  0,  0,  1,  0,  0,  0,  0, -1,  0,  0,  0,  0,  0],
	    [  1, -1,  0,  1,  0,  0, -1,  0,  0,  0,  0,  1,  0,  0,  0,  0,  0],
	    [  3, -1,  0, -1,  0,  0, -1,  0,  0,  0,  0, -1,  0,  0,  0,  0,  0],
	    [  1, -1,  0,  0,  0,  0,  0,  0,  0,  0,  0,  0, -1,  1,  0,  0,  0],
	    [  1, -1,  0,  0,  0,  0,  0,  0,  0,  0, -1,  0,  0,  1,  0,  0,  0],
	    [  1, -1,  0,  0,  0,  0,  0,  0,  0,  0,  1,  0,  1, -1,  0,  0,  0],
	    [  2, -1, -1,  0,  0,  0,  0,  0,  0,  0,  0,  0,  0,  0, -1,  0,  0],
	    [  1, -1,  0,  0,  0,  1,  0,  0,  0,  0,  0,  0,  0,  0, -1,  0,  0],
	    [  1, -1,  1,  0,  0, -1,  0,  0,  0,  0,  0,  0,  0,  0,  1,  0,  0],
	    [  2, -1,  0,  0,  0,  0,  0,  0,  0,  0,  0,  0,  0,  0,  0, -1, -1],
	    [  1, -1,  0,  0,  0,  0,  0,  0,  0,  0,  0,  0,  0,  1,  0,  0, -1],
	    [  1, -1,  0,  0,  0,  0,  0,  0,  0,  0,  0,  0,  0, -1,  0,  1,  1],
	    [  1, -1, -1,  0,  0,  1,  0,  0,  0,  0,  0,  0,  0,  0,  0,  1,  0],
	    [  1, -1,  1,  0,  0,  1,  0,  0,  0,  0,  0,  0,  0,  0,  0, -1,  0],
	    [  1, -1,  1,  0,  0, -1,  0,  0,  0,  0,  0,  0,  0,  0,  0,  1,  0],
	    [  3, -1, -1,  0,  0, -1,  0,  0,  0,  0,  0,  0,  0,  0,  0, -1,  0],
	    [  1, -1,  0,  0,  0,  0,  0,  0,  1,  0,  0,  0,  0,  0,  0,  0, -1],
	    [  1, -1,  0,  0,  0,  0,  0,  0,  1,  0,  0,  0,  0,  0, -1,  0,  0],
	    [  1, -1,  0,  0,  0,  0,  0,  0, -1,  0,  0,  0,  0,  0,  1,  0,  1]
	]
    }



}
