~/research/matching/examples/makespan/ms40/ms40.inglp 
/home/avis/research/matching/examples/makespan/ms40/ms40.inglp
GLPSOL: GLPK LP/MIP Solver, v4.55
Parameter(s) specified in the command line:
 --lp ms40.in.lp -o ms40.in.glpsol
Reading problem data from 'ms40.in.lp'...
3845069 rows, 411576 columns, 14099078 non-zeros
4260856 lines were read
GLPK Simplex Optimizer, v4.55
3845069 rows, 411576 columns, 14099078 non-zeros
Preprocessing...
~     0: obj =   3.600000000e+01  infeas =  0.000e+00
OPTIMAL SOLUTION FOUND BY LP PREPROCESSOR
Time used:   3.9 secs
Memory used: 2812.7 Mb (2949317092 bytes)
Writing basic solution to 'ms40.in.glpsol'...
21.070u 1.460s 0:22.57 99.8%	0+0k 0+706128io 0pf+0w
21.09user 1.49system 0:22.63elapsed 99%CPU (0avgtext+0avgdata 2838404maxresident)k
0inputs+706152outputs (0major+705471minor)pagefaults 0swaps
