#in14    K7

param d['w'] := 1;
param c :=
	'a[0,0]'	-2
	'a[1,0]'	-2
	'a[2,0]'	-2
	'a[3,0]'	-2
	'a[4,0]'	-2
	'a[5,0]'	-2
	'a[6,0]'	-2
	'a[7,0]'	-2

	'a[0,1]'	2
	'a[1,1]'	-2
	'a[2,1]'	-2
	'a[3,1]'	-2
	'a[4,1]'	-2
	'a[5,1]'	-2
	'a[6,1]'	-2
	'a[7,1]'	-2

	'a[0,2]'	2
	'a[1,2]'	2
	'a[2,2]'	-2
	'a[3,2]'	-2
	'a[4,2]'	-2
	'a[5,2]'	-2
	'a[6,2]'	-2
	'a[7,2]'	-2


	'a[0,3]'	2
	'a[1,3]'	2
	'a[2,3]'	2
	'a[3,3]'	-2
	'a[4,3]'	-2
	'a[5,3]'	-2
	'a[6,3]'	-2
	'a[7,3]'	-2

	'a[0,4]'	2
	'a[1,4]'	2
	'a[2,4]'	2
	'a[3,4]'	2
	'a[4,4]'	-2
	'a[5,4]'	-2
	'a[6,4]'	-2
	'a[7,4]'	-2

	'a[0,5]'	2
	'a[1,5]'	2
	'a[2,5]'	2
	'a[3,5]'	2
	'a[4,5]'	2
	'a[5,5]'	-2
	'a[6,5]'	-2
	'a[7,5]'	-2

	'a[0,6]'	2
	'a[1,6]'	2
	'a[2,6]'	2
	'a[3,6]'	2
	'a[4,6]'	2
	'a[5,6]'	2
	'a[6,6]'	-2
	'a[7,6]'	-2

	'a[0,7]'	2
	'a[1,7]'	2
	'a[2,7]'	2
	'a[3,7]'	2
	'a[4,7]'	2
	'a[5,7]'	2
	'a[6,7]'	2
	'a[7,7]'	-2
;
