
Log started (V12.6.3.0) Sat Jan 11 22:41:09 2020

Warning, line 22961350: Name '_ot#8#1' does not exist.
Warning, line 22961351: Name '_ot#8#2' does not exist.
Warning, line 22961352: Name '_ot#8#3' does not exist.
Warning, line 22961353: Name '_ot#8#4' does not exist.
Warning, line 22961354: Name '_ot#8#5' does not exist.
Warning, line 22961355: Name '_ot#8#6' does not exist.
Warning, line 22961356: Name '_ot#8#7' does not exist.
Warning, line 22961357: Name '_ot#8#8' does not exist.
Warning, line 22961358: Name '_ot#8#9' does not exist.
Warning, line 22961359: Name '_ot#8#10' does not exist.
Warning, line 22961360: Name '_ot#8#11' does not exist.
Warning, line 22961361: Name '_ot#8#12' does not exist.
Warning, line 22961362: Name '_ot#8#13' does not exist.
Warning, line 22961363: Name '_ot#8#14' does not exist.
Warning, line 22961364: Name '_ot#8#15' does not exist.
Warning, line 22961365: Name '_ot#8#16' does not exist.
Warning, line 22961366: Name '_ot#8#17' does not exist.
Warning, line 22961367: Name '_ot#8#18' does not exist.
Warning, line 22961368: Name '_ot#8#19' does not exist.
Warning, line 22961369: Name '_ot#8#20' does not exist.
67995 name warnings not printed.

Problem 'wt8.in.lp' read.
Read time = 106.94 sec. (5159.93 ticks)
Parallel mode: deterministic, using up to 32 threads for concurrent optimization.
Tried aggregator 1 time.
LP Presolve eliminated 21490809 rows and 2567920 columns.
All rows and columns eliminated.
Presolve time = 14.49 sec. (9278.40 ticks)

Dual simplex - Optimal:  Objective =  3.6000000000e+01
Solution time =   26.78 sec.  Iterations = 0 (0)
Deterministic time = 16587.63 ticks  (619.33 ticks/sec)


Solution written to file 'wt8.in.xml'.
